cpu_code/tb_karatsuba_multiplier.vcd
$date
	Sat Jun 06 20:10:28 2026
$end
$version
	Icarus Verilog
$end
$timescale
	1ps
$end
$scope module tb_multiplier $end
$var wire 1 ! done $end
$var wire 64 " dataOut [63:0] $end
$var wire 1 # busy $end
$var reg 1 $ clk $end
$var reg 32 % dataA [31:0] $end
$var reg 32 & dataB [31:0] $end
$var reg 1 ' pushNewMult $end
$var reg 1 ( reset $end
$scope module dut $end
$var wire 1 $ clk $end
$var wire 32 ) dataA [31:0] $end
$var wire 32 * dataB [31:0] $end
$var wire 1 ' pushNewMult $end
$var wire 1 ( reset $end
$var wire 32 + multRes [31:0] $end
$var parameter 32 , IDLE $end
$var parameter 32 - STEP_1 $end
$var parameter 32 . STEP_2 $end
$var parameter 32 / STEP_3 $end
$var parameter 32 0 STEP_4 $end
$var reg 1 # busy $end
$var reg 32 1 dataASave [31:0] $end
$var reg 32 2 dataBSave [31:0] $end
$var reg 64 3 dataOut [63:0] $end
$var reg 1 ! done $end
$var reg 16 4 karatA [15:0] $end
$var reg 16 5 karatB [15:0] $end
$var reg 32 6 multRes1 [31:0] $end
$var reg 32 7 multRes2 [31:0] $end
$var reg 3 8 state [2:0] $end
$upscope $end
$scope task drive_mult $end
$var reg 32 9 dataAInp [31:0] $end
$var reg 32 : dataBInp [31:0] $end
$upscope $end
$scope task wait_done $end
$upscope $end
$upscope $end
$enddefinitions $end
$comment Show the parameter values. $end
$dumpall
b100 0
b11 /
b10 .
b1 -
b0 ,
$end
#0
$dumpvars
bx :
bx 9
b0 8
bx 7
bx 6
bx 5
bx 4
bx 3
bx 2
bx 1
bx +
b0 *
b0 )
1(
0'
b0 &
b0 %
0$
0#
bx "
0!
$end
#5000
1$
#10000
0$
#13000
0(
#15000
1$
#20000
b101 &
b101 *
b11 %
b11 )
1'
0$
b101 :
b11 9
#25000
1#
b1 8
b101 2
b11 1
1$
#30000
0'
0$
#35000
b10 8
b1111 +
b101 5
b11 4
1$
#40000
0$
#45000
b11 8
b0 5
b0 +
b0 4
b1111 6
1$
#50000
0$
#55000
b100 8
b1111 +
b101 5
b11 4
b0 7
1$
#60000
0$
#65000
b1000 :
b100 9
b0 8
0#
1!
b1111 "
b1111 3
1$
#70000
b1000 &
b1000 *
b100 %
b100 )
1'
0$
#75000
1#
b1 8
b1000 2
b100 1
0!
1$
#80000
0'
0$
#85000
b10 8
b1000 5
b100000 +
b100 4
1$
#90000
0$
#95000
b11 8
b0 5
b0 +
b0 4
b100000 6
1$
#100000
0$
#105000
b100 8
b100000 +
b1000 5
b100 4
1$
#110000
0$
#115000
b0 :
b1111100111 9
b0 8
0#
1!
b100000 "
b100000 3
1$
#120000
b0 &
b0 *
b1111100111 %
b1111100111 )
1'
0$
#125000
1#
b1 8
b0 2
b1111100111 1
0!
1$
#130000
0'
0$
#135000
b10 8
b0 5
b0 +
b1111100111 4
1$
#140000
0$
#145000
b11 8
b0 4
b0 6
1$
#150000
0$
#155000
b100 8
b1111100111 4
1$
#160000
0$
#165000
b1 :
b101010 9
b0 8
0#
1!
b0 "
b0 3
1$
#170000
b1 &
b1 *
b101010 %
b101010 )
1'
0$
#175000
1#
b1 8
b1 2
b101010 1
0!
1$
#180000
0'
0$
#185000
b10 8
b101010 +
b1 5
b101010 4
1$
#190000
0$
#195000
b11 8
b0 5
b0 +
b0 4
b101010 6
1$
#200000
0$
#205000
b100 8
b101010 +
b1 5
b101010 4
1$
#210000
0$
#215000
b10111110 :
b11001000 9
b0 8
0#
1!
b101010 "
b101010 3
1$
#220000
b10111110 &
b10111110 *
b11001000 %
b11001000 )
1'
0$
#225000
1#
b1 8
b10111110 2
b11001000 1
0!
1$
#230000
0'
0$
#235000
b10 8
b10111110 5
b1001010001110000 +
b11001000 4
1$
#240000
0$
#245000
b11 8
b0 5
b0 +
b0 4
b1001010001110000 6
1$
#250000
0$
#255000
b100 8
b1001010001110000 +
b10111110 5
b11001000 4
1$
#260000
0$
#265000
b11111111 :
b11111111 9
b0 8
0#
1!
b1001010001110000 "
b1001010001110000 3
1$
#270000
b11111111 &
b11111111 *
b11111111 %
b11111111 )
1'
0$
#275000
1#
b1 8
b11111111 2
b11111111 1
0!
1$
#280000
0'
0$
#285000
b10 8
b11111111 5
b1111111000000001 +
b11111111 4
1$
#290000
0$
#295000
b11 8
b0 5
b0 +
b0 4
b1111111000000001 6
1$
#300000
0$
#305000
b100 8
b1111111000000001 +
b11111111 5
b11111111 4
1$
#310000
0$
#315000
b1111101000 :
b1111101000 9
b0 8
0#
1!
b1111111000000001 "
b1111111000000001 3
1$
#320000
b1111101000 &
b1111101000 *
b1111101000 %
b1111101000 )
1'
0$
#325000
1#
b1 8
b1111101000 2
b1111101000 1
0!
1$
#330000
0'
0$
#335000
b10 8
b1111101000 5
b11110100001001000000 +
b1111101000 4
1$
#340000
0$
#345000
b11 8
b0 5
b0 +
b0 4
b11110100001001000000 6
1$
#350000
0$
#355000
b100 8
b11110100001001000000 +
b1111101000 5
b1111101000 4
1$
#360000
0$
#365000
b0 8
0#
1!
b11110100001001000000 "
b11110100001001000000 3
1$
#370000
0$
#375000
0!
1$
