cpu_code/tb_multiplier.vcd
$date
	Sat Jun 06 20:14:20 2026
$end
$version
	Icarus Verilog
$end
$timescale
	1ps
$end
$scope module tb_multiplier $end
$var wire 1 ! done $end
$var wire 64 " dataOut [63:0] $end
$var wire 1 # busy $end
$var reg 1 $ clk $end
$var reg 32 % dataA [31:0] $end
$var reg 32 & dataB [31:0] $end
$var reg 1 ' pushNewMult $end
$var reg 1 ( reset $end
$scope module dut $end
$var wire 1 $ clk $end
$var wire 32 ) dataA [31:0] $end
$var wire 32 * dataB [31:0] $end
$var wire 1 ' pushNewMult $end
$var wire 1 ( reset $end
$var wire 4 + dataSplitting [3:0] $end
$var parameter 32 , SPLIT_COUNT $end
$var parameter 32 - SPLIT_WIDTH $end
$var reg 1 # busy $end
$var reg 4 . countState [3:0] $end
$var reg 32 / dataACompute [31:0] $end
$var reg 32 0 dataASave [31:0] $end
$var reg 32 1 dataBSave [31:0] $end
$var reg 4 2 dataCompute [3:0] $end
$var reg 64 3 dataInter [63:0] $end
$var reg 64 4 dataOut [63:0] $end
$var reg 32 5 dataStore [31:0] $end
$var reg 1 ! done $end
$var reg 1 6 valid $end
$var integer 32 7 i [31:0] $end
$upscope $end
$scope task drive_mult $end
$var reg 32 8 dataAInp [31:0] $end
$var reg 32 9 dataBInp [31:0] $end
$upscope $end
$scope task wait_done $end
$upscope $end
$upscope $end
$enddefinitions $end
$comment Show the parameter values. $end
$dumpall
b100 -
b1000 ,
$end
#0
$dumpvars
bx 9
bx 8
bx 7
06
b0 5
bx 4
bx 3
bx 2
bx 1
bx 0
bx /
b0 .
bx +
b0 *
b0 )
1(
0'
b0 &
b0 %
0$
0#
bx "
0!
$end
#5000
1$
#10000
0$
#13000
0(
#15000
1$
#20000
b101 &
b101 *
b11 %
b11 )
1'
0$
b101 9
b11 8
#25000
1#
b101 +
b101 1
b11 0
1$
#30000
0'
0$
#35000
b100 7
b1111 3
b0 +
b1 .
16
bx 5
b11 /
b101 2
1$
#40000
0$
#45000
b100 7
b0 3
b10 .
b0 2
1$
#50000
0$
#55000
b11 .
1$
#60000
0$
#65000
b100 .
1$
#70000
0$
#75000
b101 .
1$
#80000
0$
#85000
b110 .
1$
#90000
0$
#95000
b111 .
1$
#100000
0$
#105000
b1000 9
b100 8
b101 +
b0 .
1!
06
0#
1$
#110000
b1000 &
b1000 *
b100 %
b100 )
1'
0$
#115000
1#
b1000 +
b1000 1
b100 0
0!
1$
#120000
0'
0$
#125000
b100000 3
b100 7
b0 +
b1 .
16
b0 5
b100 /
b1000 2
1$
#130000
0$
#135000
b100 7
b0 3
b10 .
b100000 5
b0 2
1$
#140000
0$
#145000
b11 .
1$
#150000
0$
#155000
b100 .
1$
#160000
0$
#165000
b101 .
1$
#170000
0$
#175000
b110 .
1$
#180000
0$
#185000
b111 .
1$
#190000
0$
#195000
b0 9
b1111100111 8
b1000 +
b0 .
b100000 "
b100000 4
1!
06
0#
1$
#200000
b0 &
b0 *
b1111100111 %
b1111100111 )
1'
0$
#205000
1#
b0 +
b0 1
b1111100111 0
0!
1$
#210000
0'
0$
#215000
b100 7
b1 .
16
b0 5
b1111100111 /
1$
#220000
0$
#225000
b10 .
1$
#230000
0$
#235000
b11 .
1$
#240000
0$
#245000
b100 .
1$
#250000
0$
#255000
b101 .
1$
#260000
0$
#265000
b110 .
1$
#270000
0$
#275000
b111 .
1$
#280000
0$
#285000
b1 9
b101010 8
b0 .
b0 "
b0 4
1!
06
0#
1$
#290000
b1 &
b1 *
b101010 %
b101010 )
1'
0$
#295000
1#
b1 +
b1 1
b101010 0
0!
1$
#300000
0'
0$
#305000
b101010 3
b100 7
b0 +
b1 .
16
b101010 /
b1 2
1$
#310000
0$
#315000
b100 7
b0 3
b10 .
b101010 5
b0 2
1$
#320000
0$
#325000
b11 .
1$
#330000
0$
#335000
b100 .
1$
#340000
0$
#345000
b101 .
1$
#350000
0$
#355000
b110 .
1$
#360000
0$
#365000
b111 .
1$
#370000
0$
#375000
b10111110 9
b11001000 8
b1 +
b0 .
b101010 "
b101010 4
1!
06
0#
1$
#380000
b10111110 &
b10111110 *
b11001000 %
b11001000 )
1'
0$
#385000
1#
b1110 +
b10111110 1
b11001000 0
0!
1$
#390000
0'
0$
#395000
b101011110000 3
b100 7
b1011 +
b1 .
16
b0 5
b11001000 /
b1110 2
1$
#400000
0$
#405000
b100 7
b100010011000 3
b0 +
b10 .
b101011110000 5
b1011 2
1$
#410000
0$
#415000
b100 7
b0 3
b11 .
b1001110001000 5
b0 2
1$
#420000
0$
#425000
b100 .
1$
#430000
0$
#435000
b101 .
1$
#440000
0$
#445000
b110 .
1$
#450000
0$
#455000
b111 .
1$
#460000
0$
#465000
b11111111 9
b11111111 8
b1110 +
b0 .
b1001110001000 "
b1001110001000 4
1!
06
0#
1$
#470000
b11111111 &
b11111111 *
b11111111 %
b11111111 )
1'
0$
#475000
1#
b1111 +
b11111111 1
b11111111 0
0!
1$
#480000
0'
0$
#485000
b111011110001 3
b100 7
b1 .
16
b0 5
b11111111 /
b1111 2
1$
#490000
0$
#495000
b0 +
b10 .
b111011110001 5
1$
#500000
0$
#505000
b100 7
b0 3
b11 .
b1110111100010 5
b0 2
1$
#510000
0$
#515000
b100 .
1$
#520000
0$
#525000
b101 .
1$
#530000
0$
#535000
b110 .
1$
#540000
0$
#545000
b111 .
1$
#550000
0$
#555000
b1111101000 9
b1111101000 8
b1111 +
b0 .
b1110111100010 "
b1110111100010 4
1!
06
0#
1$
#560000
b1111101000 &
b1111101000 *
b1111101000 %
b1111101000 )
1'
0$
#565000
1#
b1000 +
b1111101000 1
b1111101000 0
0!
1$
#570000
0'
0$
#575000
b1111101000000 3
b100 7
b1110 +
b1 .
16
b0 5
b1111101000 /
b1000 2
1$
#580000
0$
#585000
b100 7
b11011010110000 3
b11 +
b10 .
b1111101000000 5
b1110 2
1$
#590000
0$
#595000
b100 7
b101110111000 3
b0 +
b11 .
b101010111110000 5
b11 2
1$
#600000
0$
#605000
b100 7
b0 3
b100 .
b110000110101000 5
b0 2
1$
#610000
0$
#615000
b101 .
1$
#620000
0$
#625000
b110 .
1$
#630000
0$
#635000
b111 .
1$
#640000
0$
#645000
b1000 +
b0 .
b110000110101000 "
b110000110101000 4
1!
06
0#
1$
#650000
0$
#655000
0!
1$
