memory_manager/mem_control_tb.vcd
$date
	Sun May 17 16:27:40 2026
$end
$version
	Icarus Verilog
$end
$timescale
	1ps
$end
$scope module mem_control_tb $end
$var wire 1 ! done $end
$var wire 1 " busy $end
$var wire 1 # WrEnOut $end
$var wire 1 $ RowAddrStrobe $end
$var wire 32 % ReData [31:0] $end
$var wire 16 & DataOut [15:0] $end
$var wire 2 ' DataMask [1:0] $end
$var wire 1 ( ColAddrStrobe $end
$var wire 2 ) BankAddr [1:0] $end
$var wire 13 * AddrOut [12:0] $end
$var parameter 32 + TIMEOUT $end
$var reg 32 , AddrIn [31:0] $end
$var reg 1 - EnIn $end
$var reg 16 . ReDataFromRAM [15:0] $end
$var reg 32 / WrData [31:0] $end
$var reg 1 0 WrEnIn $end
$var reg 1 1 clk $end
$var reg 1 2 first_cas_seen $end
$var reg 16 3 ram_word_hi [15:0] $end
$var reg 16 4 ram_word_lo [15:0] $end
$var reg 1 5 reset $end
$var integer 32 6 fail_count [31:0] $end
$var integer 32 7 pass_count [31:0] $end
$scope module dut $end
$var wire 32 8 AddrIn [31:0] $end
$var wire 1 - EnIn $end
$var wire 16 9 ReDataFromRAM [15:0] $end
$var wire 32 : WrData [31:0] $end
$var wire 1 0 WrEnIn $end
$var wire 1 1 clk $end
$var wire 1 5 reset $end
$var parameter 4 ; COL_FAILSWITCH $end
$var parameter 4 < DONE $end
$var parameter 4 = IDLE $end
$var parameter 4 > READ_1 $end
$var parameter 4 ? READ_2 $end
$var parameter 4 @ REROW $end
$var parameter 4 A WAIT $end
$var parameter 2 B WAITING_TIME $end
$var parameter 4 C WRITE_1 $end
$var parameter 4 D WRITE_2 $end
$var reg 13 E AddrOut [12:0] $end
$var reg 2 F BankAddr [1:0] $end
$var reg 1 ( ColAddrStrobe $end
$var reg 2 G DataMask [1:0] $end
$var reg 16 H DataOut [15:0] $end
$var reg 32 I ReData [31:0] $end
$var reg 1 $ RowAddrStrobe $end
$var reg 1 # WrEnOut $end
$var reg 1 " busy $end
$var reg 10 J col [9:0] $end
$var reg 2 K counter [1:0] $end
$var reg 1 ! done $end
$var reg 15 L next_bank_row [14:0] $end
$var reg 4 M next_state [3:0] $end
$var reg 13 N row [12:0] $end
$var reg 4 O state [3:0] $end
$var reg 32 P tempData [31:0] $end
$upscope $end
$scope task check $end
$var reg 1 Q condition $end
$var reg 128 R label [127:0] $end
$upscope $end
$scope task do_reset $end
$upscope $end
$scope task tc10_busy_done_pulse $end
$var reg 1 S timed_out $end
$var integer 32 T busy_cycles [31:0] $end
$var integer 32 U done_cycles [31:0] $end
$upscope $end
$scope task tc11_read_data_assembly $end
$var reg 1 V timed_out $end
$upscope $end
$scope task tc12_write_signal_sequencing $end
$var reg 1 W cas_seen $end
$var reg 1 X ras_before_cas $end
$var reg 1 Y ras_seen $end
$var reg 1 Z we_seen $end
$scope begin seq_loop $end
$var integer 32 [ k [31:0] $end
$upscope $end
$upscope $end
$scope task tc1_reset $end
$upscope $end
$scope task tc2_idle_no_enable $end
$upscope $end
$scope task tc3_normal_write $end
$var reg 1 \ timed_out $end
$upscope $end
$scope task tc4_normal_read $end
$var reg 1 ] timed_out $end
$upscope $end
$scope task tc5_write_col_wrap $end
$var reg 1 ^ timed_out $end
$upscope $end
$scope task tc6_read_col_wrap $end
$var reg 1 _ timed_out $end
$upscope $end
$scope task tc7_write_col_wrap_bank_rollover $end
$var reg 1 ` timed_out $end
$upscope $end
$scope task tc8_back_to_back $end
$var reg 1 a timed_out $end
$upscope $end
$scope task tc9_reset_mid_transaction $end
$scope begin tc9_wait $end
$var reg 1 b timed_out2 $end
$var integer 32 c j [31:0] $end
$upscope $end
$upscope $end
$scope task wait_done $end
$var reg 1 d timed_out $end
$var integer 32 e i [31:0] $end
$upscope $end
$upscope $end
$enddefinitions $end
$comment Show the parameter values. $end
$dumpall
b11 D
b10 C
b11 B
b1 A
b111 @
b101 ?
b100 >
b0 =
b1000 <
b110 ;
b111100 +
$end
#0
$dumpvars
bx e
xd
bx c
xb
xa
x`
x_
x^
x]
x\
bx [
xZ
xY
xX
xW
xV
bx U
bx T
xS
bx R
xQ
bx P
b0 O
bx N
b0 M
bx L
b0 K
bx J
bx I
bx H
b0 G
bx F
bx E
b0 :
b0 9
b0 8
b0 7
b0 6
15
bx 4
bx 3
02
01
00
b0 /
b0 .
0-
b0 ,
bx *
bx )
1(
b0 '
bx &
bx %
1$
1#
0"
0!
$end
#5000
11
#10000
01
#15000
11
#16000
10
1-
15
#20000
01
#25000
11
#26000
00
0-
05
b101 7
b1101100011011110111011100100000011001000111010101110010011010010110111001100111001000000111001001100101011100110110010101110100 R
1Q
#30000
01
#35000
11
#36000
15
#40000
01
#45000
11
#50000
01
#55000
11
#56000
05
#60000
01
#65000
11
#70000
01
#75000
11
#80000
01
#85000
11
#90000
01
#95000
11
#96000
15
b1010 7
b1101001011011100110000101100011011101000110100101110110011001010010000001101001011011100010000001101001011001000110110001100101 R
#100000
01
#105000
11
#110000
01
#115000
11
#116000
1-
10
b11011110101011011011111011101111 /
b11011110101011011011111011101111 :
b100100011010000010000 ,
b100100011010000010000 8
05
#120000
01
#125000
b1 O
b10 M
b1011111011101111 &
b1011111011101111 H
1"
0$
b100100011 *
b100100011 E
b10000 J
b1 )
b1 F
b100100011 N
11
#126000
b0 e
0d
0-
#130000
01
#135000
b1 K
1$
11
#136000
b1 e
#140000
01
#145000
b10 K
11
#146000
b10 e
#150000
01
#155000
b11 K
11
#156000
b11 e
#160000
01
#165000
b10 O
b0 K
11
#166000
b100 e
#170000
01
#175000
12
bx .
bx 9
b1 O
b11 M
b10001 J
b10000 *
b10000 E
0#
0(
11
#176000
b101 e
#180000
01
#185000
b1 K
1#
1(
11
#186000
b110 e
#190000
01
#195000
b10 K
11
#196000
b111 e
#200000
01
#205000
b11 K
11
#206000
b1000 e
#210000
01
#215000
b11 O
b0 K
11
#216000
b1001 e
#220000
01
#225000
02
b1 O
b1000 M
b10001 *
b10001 E
0#
0(
11
#226000
b1010 e
#230000
01
#235000
b1 K
1#
1(
11
#236000
b1011 e
#240000
01
#245000
b10 K
11
#246000
b1100 e
#250000
01
#255000
b11 K
11
#256000
b1101 e
#260000
01
#265000
b1000 O
b0 K
11
#266000
b1110 e
#270000
01
#275000
b0 O
1!
11
#276000
b0 M
0!
0"
b0 .
b0 9
b0 /
b0 :
b0 ,
b0 8
15
00
b1 6
1Q
b1111 7
b1100011011101000110100101110110011001010010000001100001011001100111010001100101011100100010000001100100011011110110111001100101 R
0\
b111101 e
#280000
01
#285000
11
#290000
01
#295000
11
#296000
1-
b10001010110100000100000 ,
b10001010110100000100000 8
b1011101010111110 3
b1100101011111110 4
05
#300000
01
#305000
b1 O
b100 M
1"
0$
b10001010110 *
b10001010110 E
b100000 J
b10 )
b10 F
b10001010110 N
11
#306000
b0 e
0-
#310000
01
#315000
b1 K
1$
11
#316000
b1 e
#320000
01
#325000
b10 K
11
#326000
b10 e
#330000
01
#335000
b11 K
11
#336000
b11 e
#340000
01
#345000
b100 O
b0 K
11
#346000
b100 e
#350000
01
#355000
12
b1100101011111110 .
b1100101011111110 9
b1 O
b101 M
b100001 J
b100000 *
b100000 E
0(
11
#356000
b101 e
#360000
01
#365000
b1 K
1(
11
#366000
b110 e
#370000
01
#375000
b10 K
11
#376000
b111 e
#380000
01
#385000
b11 K
11
#386000
b1000 e
#390000
01
#395000
b101 O
b0 K
11
#396000
b1001 e
#400000
01
#405000
02
b1011101010111110 .
b1011101010111110 9
b1 O
b1000 M
b100001 *
b100001 E
0(
11
#406000
b1010 e
#410000
01
#415000
b1 K
1(
11
#416000
b1011 e
#420000
01
#425000
b10 K
11
#426000
b1100 e
#430000
01
#435000
b11 K
11
#436000
b1101 e
#440000
01
#445000
b1000 O
b0 K
11
#446000
b1110 e
#450000
01
#455000
b0 O
1!
b1011101010111110xxxxxxxxxxxxxxxx %
b1011101010111110xxxxxxxxxxxxxxxx I
b1011101010111110xxxxxxxxxxxxxxxx P
11
#456000
b0 M
0!
0"
b0 .
b0 9
b0 ,
b0 8
15
b10 6
1Q
b10010 7
b1101001011101100110010101101110001000000110110001101111011101110010000001101111011011100010000001110010011001010110000101100100 R
0]
b111101 e
#460000
01
#465000
11
#470000
01
#475000
11
#476000
1-
10
b10010001101000101011001111000 /
b10010001101000101011001111000 :
b1001111111111 ,
b1001111111111 8
05
#480000
01
#485000
b1 O
b10 M
b101011001111000 &
b101011001111000 H
1"
0$
b1 *
b1 E
b1111111111 J
b0 )
b0 F
b1 N
11
#486000
b0 e
0-
#490000
01
#495000
b1 K
1$
11
#496000
b1 e
#500000
01
#505000
b10 K
11
#506000
b10 e
#510000
01
#515000
b11 K
11
#516000
b11 e
#520000
01
#525000
b10 O
b0 K
11
#526000
b100 e
#530000
01
#535000
12
b1100101011111110 .
b1100101011111110 9
b1 O
b110 M
b1111111111 *
b1111111111 E
0#
0(
11
#536000
b101 e
#540000
01
#545000
b1 K
1#
1(
11
#546000
b110 e
#550000
01
#555000
b10 K
11
#556000
b111 e
#560000
01
#565000
b11 K
11
#566000
b1000 e
#570000
01
#575000
b110 O
b0 K
11
#576000
b1001 e
#580000
01
#585000
b111 O
b1001000110100 &
b1001000110100 H
b10 L
b0 J
11
#586000
b1010 e
#590000
01
#595000
b1 O
b11 M
0$
b10 *
b10 E
b10 N
11
#596000
b1011 e
#600000
01
#605000
b1 K
1$
11
#606000
b1100 e
#610000
01
#615000
b10 K
11
#616000
b1101 e
#620000
01
#625000
b11 K
11
#626000
b1110 e
#630000
01
#635000
b11 O
b0 K
11
#636000
b1111 e
#640000
01
#645000
02
b1011101010111110 .
b1011101010111110 9
b1 O
b1000 M
b0 *
b0 E
0#
0(
11
#646000
b10000 e
#650000
01
#655000
b1 K
1#
1(
11
#656000
b10001 e
#660000
01
#665000
b10 K
11
#666000
b10010 e
#670000
01
#675000
b11 K
11
#676000
b10011 e
#680000
01
#685000
b1000 O
b0 K
11
#686000
b10100 e
#690000
01
#695000
b0 O
1!
11
#696000
b0 M
0!
0"
b0 .
b0 9
b0 /
b0 :
b0 ,
b0 8
15
00
b10100 7
b1110010001000000110001101101111011011000010110101110111011100100110000101110000001000000111011101110010011010010111010001100101 R
0^
b111101 e
#700000
01
#705000
11
#710000
01
#715000
11
#716000
1-
b10000011111111111 ,
b10000011111111111 8
b1110111100000001 3
b1010101111001101 4
05
#720000
01
#725000
b1 O
b100 M
1"
0$
b10000 *
b10000 E
b1111111111 J
b1 )
b1 F
b10000 N
11
#726000
b0 e
0-
#730000
01
#735000
b1 K
1$
11
#736000
b1 e
#740000
01
#745000
b10 K
11
#746000
b10 e
#750000
01
#755000
b11 K
11
#756000
b11 e
#760000
01
#765000
b100 O
b0 K
11
#766000
b100 e
#770000
01
#775000
12
b1010101111001101 .
b1010101111001101 9
b1 O
b110 M
b1111111111 *
b1111111111 E
0(
11
#776000
b101 e
#780000
01
#785000
b1 K
1(
11
#786000
b110 e
#790000
01
#795000
b10 K
11
#796000
b111 e
#800000
01
#805000
b11 K
11
#806000
b1000 e
#810000
01
#815000
b110 O
b0 K
11
#816000
b1001 e
#820000
01
#825000
b111 O
b10000000010001 L
b0 J
11
#826000
b1010 e
#830000
01
#835000
b1 O
b101 M
0$
b10001 *
b10001 E
b10001 N
11
#836000
b1011 e
#840000
01
#845000
b1 K
1$
11
#846000
b1100 e
#850000
01
#855000
b10 K
11
#856000
b1101 e
#860000
01
#865000
b11 K
11
#866000
b1110 e
#870000
01
#875000
b101 O
b0 K
11
#876000
b1111 e
#880000
01
#885000
02
b1110111100000001 .
b1110111100000001 9
b1 O
b1000 M
b0 *
b0 E
0(
11
#886000
b10000 e
#890000
01
#895000
b1 K
1(
11
#896000
b10001 e
#900000
01
#905000
b10 K
11
#906000
b10010 e
#910000
01
#915000
b11 K
11
#916000
b10011 e
#920000
01
#925000
b1000 O
b0 K
11
#926000
b10100 e
#930000
01
#935000
b0 O
1!
b1110111100000001xxxxxxxxxxxxxxxx %
b1110111100000001xxxxxxxxxxxxxxxx I
b1110111100000001xxxxxxxxxxxxxxxx P
11
#936000
b0 M
0!
0"
b0 .
b0 9
b0 ,
b0 8
15
b11 6
xQ
b10110 7
b1100101011100100010000001100011011011110110110000101101011101110111001001100001011100000010000001110010011001010110000101100100 R
0_
b111101 e
#940000
01
#945000
11
#950000
01
#955000
11
#956000
1-
10
b11111111111111110000000000000000 /
b11111111111111110000000000000000 :
b1111111111111111111111111 ,
b1111111111111111111111111 8
05
#960000
01
#965000
b1 O
b10 M
b0 &
b0 H
1"
0$
b1111111111111 *
b1111111111111 E
b1111111111 J
b11 )
b11 F
b1111111111111 N
11
#966000
b0 e
0-
#970000
01
#975000
b1 K
1$
11
#976000
b1 e
#980000
01
#985000
b10 K
11
#986000
b10 e
#990000
01
#995000
b11 K
11
#996000
b11 e
#1000000
01
#1005000
b10 O
b0 K
11
#1006000
b100 e
#1010000
01
#1015000
12
b1010101111001101 .
b1010101111001101 9
b1 O
b110 M
b1111111111 *
b1111111111 E
0#
0(
11
#1016000
b101 e
#1020000
01
#1025000
b1 K
1#
1(
11
#1026000
b110 e
#1030000
01
#1035000
b10 K
11
#1036000
b111 e
#1040000
01
#1045000
b11 K
11
#1046000
b1000 e
#1050000
01
#1055000
b110 O
b0 K
11
#1056000
b1001 e
#1060000
01
#1065000
b111 O
b1111111111111111 &
b1111111111111111 H
b0 L
b0 J
11
#1066000
b1010 e
#1070000
01
#1075000
b1 O
b11 M
0$
b0 *
b0 E
b0 N
b0 )
b0 F
11
#1076000
b1011 e
#1080000
01
#1085000
b1 K
1$
11
#1086000
b1100 e
#1090000
01
#1095000
b10 K
11
#1096000
b1101 e
#1100000
01
#1105000
b11 K
11
#1106000
b1110 e
#1110000
01
#1115000
b11 O
b0 K
11
#1116000
b1111 e
#1120000
01
#1125000
02
b1110111100000001 .
b1110111100000001 9
b1 O
b1000 M
0#
0(
11
#1126000
b10000 e
#1130000
01
#1135000
b1 K
1#
1(
11
#1136000
b10001 e
#1140000
01
#1145000
b10 K
11
#1146000
b10010 e
#1150000
01
#1155000
b11 K
11
#1156000
b10011 e
#1160000
01
#1165000
b1000 O
b0 K
11
#1166000
b10100 e
#1170000
01
#1175000
b0 O
1!
11
#1176000
b0 M
0!
0"
b0 .
b0 9
b0 /
b0 :
b0 ,
b0 8
15
00
b11000 7
b1101011001011010111001001101111011011000110110001101111011101100110010101110010001000000111011101110010011010010111010001100101 R
1Q
0`
b111101 e
#1180000
01
#1185000
11
#1190000
01
#1195000
11
#1196000
1-
10
b10101010101110111100110011011101 /
b10101010101110111100110011011101 :
b10000000000101 ,
b10000000000101 8
b10001000100010 3
b1000100010001 4
05
#1200000
01
#1205000
b1 O
b10 M
b1100110011011101 &
b1100110011011101 H
1"
0$
b10 *
b10 E
b101 J
b10 N
11
#1206000
b0 e
0-
#1210000
01
#1215000
b1 K
1$
11
#1216000
b1 e
#1220000
01
#1225000
b10 K
11
#1226000
b10 e
#1230000
01
#1235000
b11 K
11
#1236000
b11 e
#1240000
01
#1245000
b10 O
b0 K
11
#1246000
b100 e
#1250000
01
#1255000
12
b1000100010001 .
b1000100010001 9
b1 O
b11 M
b110 J
b101 *
b101 E
0#
0(
11
#1256000
b101 e
#1260000
01
#1265000
b1 K
1#
1(
11
#1266000
b110 e
#1270000
01
#1275000
b10 K
11
#1276000
b111 e
#1280000
01
#1285000
b11 K
11
#1286000
b1000 e
#1290000
01
#1295000
b11 O
b0 K
11
#1296000
b1001 e
#1300000
01
#1305000
02
b10001000100010 .
b10001000100010 9
b1 O
b1000 M
b110 *
b110 E
0#
0(
11
#1306000
b1010 e
#1310000
01
#1315000
b1 K
1#
1(
11
#1316000
b1011 e
#1320000
01
#1325000
b10 K
11
#1326000
b1100 e
#1330000
01
#1335000
b11 K
11
#1336000
b1101 e
#1340000
01
#1345000
b1000 O
b0 K
11
#1346000
b1110 e
#1350000
01
#1355000
b0 O
1!
b10001000100010xxxxxxxxxxxxxxxx %
b10001000100010xxxxxxxxxxxxxxxx I
b10001000100010xxxxxxxxxxxxxxxx P
11
#1356000
00
b11010 7
b1100100011011110110111001100101001000000110000101100110011101000110010101110010001000000111011101110010011010010111010001100101 R
0a
b111101 e
#1360000
01
#1365000
0!
0"
11
#1366000
1-
b11010000000110 ,
b11010000000110 8
#1370000
01
#1375000
b1 O
b100 M
1"
0$
b11 *
b11 E
b1 )
b1 F
b11 N
11
#1376000
b0 e
0-
#1380000
01
#1385000
b1 K
1$
11
#1386000
b1 e
#1390000
01
#1395000
b10 K
11
#1396000
b10 e
#1400000
01
#1405000
b11 K
11
#1406000
b11 e
#1410000
01
#1415000
b100 O
b0 K
11
#1416000
b100 e
#1420000
01
#1425000
12
b1000100010001 .
b1000100010001 9
b1 O
b101 M
b111 J
b110 *
b110 E
0(
11
#1426000
b101 e
#1430000
01
#1435000
b1 K
1(
11
#1436000
b110 e
#1440000
01
#1445000
b10 K
11
#1446000
b111 e
#1450000
01
#1455000
b11 K
11
#1456000
b1000 e
#1460000
01
#1465000
b101 O
b0 K
11
#1466000
b1001 e
#1470000
01
#1475000
02
b10001000100010 .
b10001000100010 9
b1 O
b1000 M
b111 *
b111 E
0(
11
#1476000
b1010 e
#1480000
01
#1485000
b1 K
1(
11
#1486000
b1011 e
#1490000
01
#1495000
b10 K
11
#1496000
b1100 e
#1500000
01
#1505000
b11 K
11
#1506000
b1101 e
#1510000
01
#1515000
b1000 O
b0 K
11
#1516000
b1110 e
#1520000
01
#1525000
b0 O
1!
11
#1526000
b0 M
0!
0"
b0 .
b0 9
b0 /
b0 :
b0 ,
b0 8
15
b100 6
xQ
b11100 7
b1110100001000000110011001101111011100100010000001110010011001010110000101100100001000000111000001101000011000010111001101100101 R
b111101 e
#1530000
01
#1535000
11
#1540000
01
#1545000
11
#1546000
1-
10
b1011010010110101010010110100101 /
b1011010010110101010010110100101 :
b101100100000000 ,
b101100100000000 8
05
#1550000
01
#1555000
b1 O
b10 M
b1010010110100101 &
b1010010110100101 H
1"
0$
b101 *
b101 E
b100000000 J
b10 )
b10 F
b101 N
11
#1556000
0-
#1560000
01
#1565000
b1 K
1$
11
#1570000
01
#1575000
b10 K
11
#1580000
01
#1585000
b11 K
11
#1586000
b0 K
b0 M
b0 O
0"
15
#1590000
01
#1595000
11
#1596000
00
05
b100001 7
b1110100011010010111011001100101001000000110000101100110011101000110010101110010001000000111001001100101011100110110010101110100 R
1Q
#1600000
01
#1605000
11
#1610000
01
#1615000
11
#1616000
1-
b110001000000000 ,
b110001000000000 8
b1101111010101101 3
b1011111011101111 4
#1620000
01
#1625000
b1 O
b100 M
1"
0$
b110 *
b110 E
b1000000000 J
b0 )
b0 F
b110 N
11
#1626000
b0 c
0b
0-
#1630000
01
#1635000
b1 K
1$
11
#1636000
b1 c
#1640000
01
#1645000
b10 K
11
#1646000
b10 c
#1650000
01
#1655000
b11 K
11
#1656000
b11 c
#1660000
01
#1665000
b100 O
b0 K
11
#1666000
b100 c
#1670000
01
#1675000
12
b1011111011101111 .
b1011111011101111 9
b1 O
b101 M
b1000000001 J
b1000000000 *
b1000000000 E
0(
11
#1676000
b101 c
#1680000
01
#1685000
b1 K
1(
11
#1686000
b110 c
#1690000
01
#1695000
b10 K
11
#1696000
b111 c
#1700000
01
#1705000
b11 K
11
#1706000
b1000 c
#1710000
01
#1715000
b101 O
b0 K
11
#1716000
b1001 c
#1720000
01
#1725000
02
b1101111010101101 .
b1101111010101101 9
b1 O
b1000 M
b1000000001 *
b1000000001 E
0(
11
#1726000
b1010 c
#1730000
01
#1735000
b1 K
1(
11
#1736000
b1011 c
#1740000
01
#1745000
b10 K
11
#1746000
b1100 c
#1750000
01
#1755000
b11 K
11
#1756000
b1101 c
#1760000
01
#1765000
b1000 O
b0 K
11
#1766000
b1110 c
#1770000
01
#1775000
b0 O
1!
b1101111010101101xxxxxxxxxxxxxxxx %
b1101111010101101xxxxxxxxxxxxxxxx I
b1101111010101101xxxxxxxxxxxxxxxx P
11
#1776000
b0 M
0!
0"
b0 .
b0 9
b0 /
b0 :
b0 ,
b0 8
15
b100010 7
b1110100011001010111001000100000011011010110100101100100001011010111010001111000001000000111001001100101011100110110010101110100 R
b111101 c
#1780000
01
#1785000
11
#1790000
01
#1795000
11
#1796000
1-
b111000001010000 ,
b111000001010000 8
b1 3
b0 4
05
#1800000
01
#1805000
b1 O
b100 M
1"
0$
b111 *
b111 E
b1010000 J
b111 N
11
#1806000
b0 e
b0 T
0-
#1810000
01
#1815000
b1 K
1$
11
#1816000
b1 e
#1820000
01
#1825000
b10 K
11
#1826000
b10 e
#1830000
01
#1835000
b11 K
11
#1836000
b11 e
#1840000
01
#1845000
b100 O
b0 K
11
#1846000
b100 e
#1850000
01
#1855000
12
b1 O
b101 M
b1010001 J
b1010000 *
b1010000 E
0(
11
#1856000
b101 e
#1860000
01
#1865000
b1 K
1(
11
#1866000
b110 e
#1870000
01
#1875000
b10 K
11
#1876000
b111 e
#1880000
01
#1885000
b11 K
11
#1886000
b1000 e
#1890000
01
#1895000
b101 O
b0 K
11
#1896000
b1001 e
#1900000
01
#1905000
02
b1 .
b1 9
b1 O
b1000 M
b1010001 *
b1010001 E
0(
11
#1906000
b1010 e
#1910000
01
#1915000
b1 K
1(
11
#1916000
b1011 e
#1920000
01
#1925000
b10 K
11
#1926000
b1100 e
#1930000
01
#1935000
b11 K
11
#1936000
b1101 e
#1940000
01
#1945000
b1000 O
b0 K
11
#1946000
b1110 e
#1950000
01
#1955000
b0 O
1!
b1xxxxxxxxxxxxxxxx %
b1xxxxxxxxxxxxxxxx I
b1xxxxxxxxxxxxxxxx P
11
#1956000
b1 U
b100011 7
b1110101011011000111001101100101001011010111011101101001011001000111010001101000001000000110001101101000011001010110001101101011 R
0S
b111101 e
#1960000
01
#1965000
0!
0"
11
#1966000
b0 M
b0 .
b0 9
b0 ,
b0 8
15
b100101 7
b1110011011001010111001001110100011100110010000001100001011001100111010001100101011100100010000001000100010011110100111001000101 R
#1970000
01
#1975000
11
#1980000
01
#1985000
11
#1986000
1-
b1000111100000000 ,
b1000111100000000 8
b101011001111000 3
b1001000110100 4
05
#1990000
01
#1995000
b1 O
b100 M
1"
0$
b1000 *
b1000 E
b1100000000 J
b11 )
b11 F
b1000 N
11
#1996000
b0 e
0-
#2000000
01
#2005000
b1 K
1$
11
#2006000
b1 e
#2010000
01
#2015000
b10 K
11
#2016000
b10 e
#2020000
01
#2025000
b11 K
11
#2026000
b11 e
#2030000
01
#2035000
b100 O
b0 K
11
#2036000
b100 e
#2040000
01
#2045000
12
b1001000110100 .
b1001000110100 9
b1 O
b101 M
b1100000001 J
b1100000000 *
b1100000000 E
0(
11
#2046000
b101 e
#2050000
01
#2055000
b1 K
1(
11
#2056000
b110 e
#2060000
01
#2065000
b10 K
11
#2066000
b111 e
#2070000
01
#2075000
b11 K
11
#2076000
b1000 e
#2080000
01
#2085000
b101 O
b0 K
11
#2086000
b1001 e
#2090000
01
#2095000
02
b101011001111000 .
b101011001111000 9
b1 O
b1000 M
b1100000001 *
b1100000001 E
0(
11
#2096000
b1010 e
#2100000
01
#2105000
b1 K
1(
11
#2106000
b1011 e
#2110000
01
#2115000
b10 K
11
#2116000
b1100 e
#2120000
01
#2125000
b11 K
11
#2126000
b1101 e
#2130000
01
#2135000
b1000 O
b0 K
11
#2136000
b1110 e
#2140000
01
#2145000
b0 O
1!
b101011001111000xxxxxxxxxxxxxxxx %
b101011001111000xxxxxxxxxxxxxxxx I
b101011001111000xxxxxxxxxxxxxxxx P
11
#2146000
b0 M
0!
0"
b0 .
b0 9
b0 ,
b0 8
15
b110 6
xQ
b100111 7
b1110100001000000101001001100101010001000110000101110100011000010010000001100011011011110111001001110010011001010110001101110100 R
0V
b111101 e
#2150000
01
#2155000
11
#2160000
01
#2165000
11
#2166000
1-
10
b11111110110111001011101010011000 /
b11111110110111001011101010011000 :
b1001010100000000 ,
b1001010100000000 8
0X
0Z
0W
0Y
05
#2170000
01
#2175000
b1 O
b10 M
b1011101010011000 &
b1011101010011000 H
1"
0$
b1001 *
b1001 E
b100000000 J
b1 )
b1 F
b1001 N
11
#2176000
1Y
b0 [
0-
#2180000
01
#2185000
b1 K
1$
11
#2186000
b1 [
#2190000
01
#2195000
b10 K
11
#2196000
b10 [
#2200000
01
#2205000
b11 K
11
#2206000
b11 [
#2210000
01
#2215000
b10 O
b0 K
11
#2216000
b100 [
#2220000
01
#2225000
12
b1001000110100 .
b1001000110100 9
b1 O
b11 M
b100000001 J
b100000000 *
b100000000 E
0#
0(
11
#2226000
1Z
1X
1W
b101 [
#2230000
01
#2235000
b1 K
1#
1(
11
#2236000
b110 [
#2240000
01
#2245000
b10 K
11
#2246000
b111 [
#2250000
01
#2255000
b11 K
11
#2256000
b1000 [
#2260000
01
#2265000
b11 O
b0 K
11
#2266000
b1001 [
#2270000
01
#2275000
02
b101011001111000 .
b101011001111000 9
b1 O
b1000 M
b100000001 *
b100000001 E
0#
0(
11
#2276000
b1010 [
#2280000
01
#2285000
b1 K
1#
1(
11
#2286000
b1011 [
#2290000
01
#2295000
b10 K
11
#2296000
b1100 [
#2300000
01
#2305000
b11 K
11
#2306000
b1101 [
#2310000
01
#2315000
b1000 O
b0 K
11
#2316000
b1110 [
#2320000
01
#2325000
b0 O
1!
11
#2326000
b111100 [
#2330000
01
#2335000
0!
0"
11
#2336000
00
b111 6
b101011 7
b1100001011000110111010001101001011011110110111000100000011000110110111101101101011100000110110001100101011101000110010101110011 R
0Q
b111101 [
