full_scale_mem_system_redone/tb_memory_system.vcd
$date
	Sat May 23 16:31:31 2026
$end
$version
	Icarus Verilog
$end
$timescale
	1ps
$end
$scope module tb_memory_system $end
$var wire 16 ! sdram_data_in [15:0] $end
$var wire 1 " sdram_wr_en_n $end
$var wire 1 # sdram_ras_n $end
$var wire 16 $ sdram_data_out [15:0] $end
$var wire 2 % sdram_data_mask [1:0] $end
$var wire 1 & sdram_cas_n $end
$var wire 2 ' sdram_bank [1:0] $end
$var wire 13 ( sdram_addr_pin [12:0] $end
$var wire 1 ) done $end
$var wire 32 * cpu_rd_data [31:0] $end
$var wire 1 + busy $end
$var reg 1 , clk $end
$var reg 32 - cpu_addr [31:0] $end
$var reg 1 . cpu_en $end
$var reg 32 / cpu_wr_data [31:0] $end
$var reg 1 0 cpu_wr_en $end
$var reg 2 1 ras_bank [1:0] $end
$var reg 13 2 ras_row [12:0] $end
$var reg 32 3 rdata [31:0] $end
$var reg 1 4 reset $end
$var reg 1 5 row_latched $end
$var reg 16 6 sdram_data_in_r [15:0] $end
$var integer 32 7 idx [31:0] $end
$scope module dut $end
$var wire 1 , clk $end
$var wire 32 8 cpu_addr [31:0] $end
$var wire 1 . cpu_en $end
$var wire 32 9 cpu_wr_data [31:0] $end
$var wire 1 0 cpu_wr_en $end
$var wire 32 : l1_l2_bus [31:0] $end
$var wire 1 4 reset $end
$var wire 16 ; sdram_data_in [15:0] $end
$var wire 1 " sdram_wr_en_n $end
$var wire 1 # sdram_ras_n $end
$var wire 16 < sdram_data_out [15:0] $end
$var wire 2 = sdram_data_mask [1:0] $end
$var wire 1 & sdram_cas_n $end
$var wire 2 > sdram_bank [1:0] $end
$var wire 13 ? sdram_addr [12:0] $end
$var wire 1 @ ram_wr_en $end
$var wire 32 A ram_wr_data [31:0] $end
$var wire 32 B ram_rd_data [31:0] $end
$var wire 1 C ram_en $end
$var wire 1 D ram_done $end
$var wire 1 E ram_busy $end
$var wire 32 F ram_addr [31:0] $end
$var wire 1 G l2_done $end
$var wire 1 H l2_busy $end
$var wire 1 I l1_req_wr $end
$var wire 32 J l1_req_addr [31:0] $end
$var wire 1 K l1_req $end
$var wire 1 L l1_evict_valid $end
$var wire 1 ) done $end
$var wire 32 M cpu_rd_data [31:0] $end
$var wire 1 + busy $end
$scope module u_l1 $end
$var wire 1 , clk $end
$var wire 32 N cpu_addr [31:0] $end
$var wire 1 . cpu_en $end
$var wire 32 O cpu_wr_data [31:0] $end
$var wire 1 0 cpu_wr_en $end
$var wire 1 P evict_dirty $end
$var wire 1 Q evict_way $end
$var wire 1 R hit $end
$var wire 1 S hit0 $end
$var wire 1 T hit1 $end
$var wire 32 U l1_l2_bus [31:0] $end
$var wire 1 4 reset $end
$var wire 2 V req_woff [1:0] $end
$var wire 23 W req_tag [22:0] $end
$var wire 5 X req_set [4:0] $end
$var wire 4 Y req_off [3:0] $end
$var wire 1 G l2_done $end
$var wire 1 H l2_busy $end
$var wire 1 Z hit_way $end
$var parameter 32 [ IDX_W $end
$var parameter 32 \ LINE_BITS $end
$var parameter 32 ] OFF_W $end
$var parameter 32 ^ SETS $end
$var parameter 3 _ ST_DONE $end
$var parameter 3 ` ST_EVALUATE $end
$var parameter 3 a ST_FILL $end
$var parameter 3 b ST_HIT_WRITE $end
$var parameter 3 c ST_IDLE $end
$var parameter 3 d ST_TRANSFER $end
$var parameter 3 e ST_WRITE_L2_REQ_A $end
$var parameter 3 f ST_WRITE_L2_REQ_B $end
$var parameter 32 g TAG_W $end
$var parameter 32 h WAYS $end
$var reg 3 i beat [2:0] $end
$var reg 32 j bus_drive [31:0] $end
$var reg 1 k bus_drive_en $end
$var reg 1 + busy $end
$var reg 32 l cpu_rd_data [31:0] $end
$var reg 1 ) done $end
$var reg 128 m evict_buf [127:0] $end
$var reg 128 n fetch_buf [127:0] $end
$var reg 1 L l1_evict_valid $end
$var reg 1 K l1_req $end
$var reg 32 o l1_req_addr [31:0] $end
$var reg 1 I l1_req_wr $end
$var reg 32 p req_addr [31:0] $end
$var reg 32 q req_wr_data [31:0] $end
$var reg 1 r req_wr_en $end
$var reg 3 s state [2:0] $end
$var integer 32 t i [31:0] $end
$var integer 32 u j [31:0] $end
$upscope $end
$scope module u_l2 $end
$var wire 1 , clk $end
$var wire 1 v evict_way $end
$var wire 1 w hit $end
$var wire 1 x hit0 $end
$var wire 1 y hit1 $end
$var wire 1 L l1_evict_valid $end
$var wire 32 z l1_l2_bus [31:0] $end
$var wire 1 K l1_req $end
$var wire 32 { l1_req_addr [31:0] $end
$var wire 1 I l1_req_wr $end
$var wire 1 4 reset $end
$var wire 2 | req_woff [1:0] $end
$var wire 21 } req_tag [20:0] $end
$var wire 7 ~ req_set [6:0] $end
$var wire 32 !" ram_rd_data [31:0] $end
$var wire 1 D ram_done $end
$var wire 1 E ram_busy $end
$var wire 1 "" hit_way $end
$var parameter 32 #" IDX_W $end
$var parameter 32 $" LINE_BITS $end
$var parameter 32 %" OFF_W $end
$var parameter 32 &" SETS $end
$var parameter 4 '" ST_DONE $end
$var parameter 4 (" ST_EVALUATE $end
$var parameter 4 )" ST_IDLE $end
$var parameter 4 *" ST_INSTALL $end
$var parameter 4 +" ST_RAM_FETCH $end
$var parameter 4 ," ST_RAM_FETCH_WAIT $end
$var parameter 4 -" ST_TRANSFER_HIT $end
$var parameter 4 ." ST_TRANSFER_MISS $end
$var parameter 4 /" ST_WB_BURST $end
$var parameter 4 0" ST_WB_WAIT $end
$var parameter 4 1" ST_WRITE_HIT $end
$var parameter 4 2" ST_WRITE_RAM $end
$var parameter 4 3" ST_WRITE_RAM_WAIT $end
$var parameter 32 4" TAG_W $end
$var parameter 32 5" WAYS $end
$var reg 3 6" beat [2:0] $end
$var reg 32 7" bus_drive [31:0] $end
$var reg 1 8" bus_drive_en $end
$var reg 128 9" evict_buf [127:0] $end
$var reg 1 H l2_busy $end
$var reg 1 G l2_done $end
$var reg 1 :" latch_evict_valid $end
$var reg 32 ;" latch_req_addr [31:0] $end
$var reg 1 <" latch_req_wr $end
$var reg 32 =" ram_addr [31:0] $end
$var reg 1 C ram_en $end
$var reg 128 >" ram_fetch_buf [127:0] $end
$var reg 2 ?" ram_word [1:0] $end
$var reg 32 @" ram_wr_data [31:0] $end
$var reg 1 @ ram_wr_en $end
$var reg 4 A" state [3:0] $end
$var reg 128 B" wb_buf [127:0] $end
$var reg 32 C" wr_data_buf [31:0] $end
$var integer 32 D" i [31:0] $end
$var integer 32 E" j [31:0] $end
$upscope $end
$scope module u_ram $end
$var wire 1 , clk $end
$var wire 32 F" l2_addr [31:0] $end
$var wire 1 E l2_busy $end
$var wire 1 D l2_done $end
$var wire 1 C l2_en $end
$var wire 32 G" l2_rd_data [31:0] $end
$var wire 32 H" l2_wr_data [31:0] $end
$var wire 1 @ l2_wr_en $end
$var wire 1 4 reset $end
$var wire 13 I" sdram_addr [12:0] $end
$var wire 2 J" sdram_bank [1:0] $end
$var wire 1 & sdram_cas_n $end
$var wire 16 K" sdram_data_in [15:0] $end
$var wire 2 L" sdram_data_mask [1:0] $end
$var wire 16 M" sdram_data_out [15:0] $end
$var wire 1 # sdram_ras_n $end
$var wire 1 " sdram_wr_en_n $end
$var wire 1 N" mc_wrout $end
$var wire 32 O" mc_redata [31:0] $end
$var wire 1 P" mc_ras $end
$var wire 1 Q" mc_done $end
$var wire 16 R" mc_dataout [15:0] $end
$var wire 2 S" mc_datamask [1:0] $end
$var wire 1 T" mc_cas $end
$var wire 1 U" mc_busy $end
$var wire 2 V" mc_bankaddr [1:0] $end
$var wire 13 W" mc_addrout [12:0] $end
$scope module u_mem_ctrl $end
$var wire 32 X" AddrIn [31:0] $end
$var wire 1 C EnIn $end
$var wire 16 Y" ReDataFromRAM [15:0] $end
$var wire 32 Z" WrData [31:0] $end
$var wire 1 @ WrEnIn $end
$var wire 1 , clk $end
$var wire 1 4 reset $end
$var parameter 4 [" COL_FAILSWITCH $end
$var parameter 4 \" DONE $end
$var parameter 4 ]" IDLE $end
$var parameter 4 ^" READ_1 $end
$var parameter 4 _" READ_2 $end
$var parameter 4 `" REROW $end
$var parameter 4 a" WAIT $end
$var parameter 2 b" WAITING_TIME $end
$var parameter 4 c" WRITE_1 $end
$var parameter 4 d" WRITE_2 $end
$var reg 13 e" AddrOut [12:0] $end
$var reg 2 f" BankAddr [1:0] $end
$var reg 1 T" ColAddrStrobe $end
$var reg 2 g" DataMask [1:0] $end
$var reg 16 h" DataOut [15:0] $end
$var reg 32 i" ReData [31:0] $end
$var reg 1 P" RowAddrStrobe $end
$var reg 1 N" WrEnOut $end
$var reg 1 U" busy $end
$var reg 10 j" col [9:0] $end
$var reg 2 k" counter [1:0] $end
$var reg 1 Q" done $end
$var reg 15 l" next_bank_row [14:0] $end
$var reg 4 m" next_state [3:0] $end
$var reg 13 n" row [12:0] $end
$var reg 4 o" state [3:0] $end
$var reg 32 p" tempData [31:0] $end
$upscope $end
$upscope $end
$upscope $end
$scope begin cas_block $end
$var reg 17 q" word_addr [16:0] $end
$upscope $end
$scope begin interleave_block $end
$var reg 32 r" alt [31:0] $end
$var reg 32 s" base [31:0] $end
$var integer 32 t" i [31:0] $end
$upscope $end
$scope begin sweep_block $end
$var reg 32 u" a [31:0] $end
$var integer 32 v" s [31:0] $end
$upscope $end
$scope task cpu_read $end
$var reg 32 w" addr [31:0] $end
$var reg 32 x" rd_data [31:0] $end
$var integer 32 y" timeout [31:0] $end
$upscope $end
$scope task cpu_write $end
$var reg 32 z" addr [31:0] $end
$var reg 32 {" wdata [31:0] $end
$var integer 32 |" timeout [31:0] $end
$upscope $end
$upscope $end
$enddefinitions $end
$comment Show the parameter values. $end
$dumpall
b11 d"
b10 c"
b11 b"
b1 a"
b111 `"
b101 _"
b100 ^"
b0 ]"
b1000 \"
b110 ["
b10 5"
b10101 4"
b1011 3"
b1010 2"
b1001 1"
b101 0"
b100 /"
b11 ."
b10 -"
b111 ,"
b110 +"
b1000 *"
b0 )"
b1 ("
b1100 '"
b10000000 &"
b100 %"
b10000000 $"
b111 #"
b10 h
b10111 g
b110 f
b101 e
b11 d
b0 c
b10 b
b100 a
b1 `
b111 _
b100000 ^
b100 ]
b10000000 \
b101 [
$end
#0
$dumpvars
bx |"
bx {"
bx z"
bx y"
bx x"
bx w"
bx v"
bx u"
bx t"
bx s"
bx r"
bx q"
bx p"
b0 o"
bx n"
b0 m"
bx l"
b0 k"
bx j"
bx i"
bx h"
b0 g"
bx f"
bx e"
b0 Z"
b0 Y"
b0 X"
bx W"
bx V"
0U"
1T"
b0 S"
bx R"
0Q"
1P"
bx O"
1N"
bx M"
b0 L"
b0 K"
bx J"
bx I"
b0 H"
bx G"
b0 F"
b10 E"
b10000000 D"
b0 C"
b0 B"
b0 A"
b0 @"
b0 ?"
b0 >"
b0 ="
0<"
b0 ;"
0:"
b0 9"
08"
b0 7"
b0 6"
0""
bx !"
b0 ~
b0 }
b0 |
b0 {
bz z
0y
0x
0w
0v
b10 u
b100000 t
b0 s
0r
b0 q
b0 p
b0 o
b0 n
b0 m
b0 l
0k
b0 j
b0 i
0Z
b0 Y
b0 X
b0 W
b0 V
bz U
0T
0S
0R
0Q
0P
b0 O
b0 N
b0 M
0L
0K
b0 J
0I
0H
0G
b0 F
0E
0D
0C
bx B
b0 A
0@
bx ?
bx >
b0 =
bx <
b0 ;
bz :
b0 9
b0 8
b100000000000000000 7
b0 6
05
14
bx 3
b0 2
b0 1
00
b0 /
0.
b0 -
0,
0+
b0 *
0)
bx (
bx '
1&
b0 %
bx $
1#
1"
b0 !
$end
#10000
b10 E"
b10000000 D"
b10 u
b100000 t
1,
#20000
0,
#30000
b10 u
b100000 t
b10 E"
b10000000 D"
1,
#40000
0,
#50000
b10 E"
b10000000 D"
b10 u
b100000 t
1,
#60000
0,
#70000
04
1,
#80000
0,
#90000
1,
#100000
0,
#110000
b0 w"
1,
#120000
1.
0,
#130000
b1 s
1+
1,
#140000
b0 y"
0.
0,
#150000
b11 s
1K
b1 y"
1,
#160000
0,
#170000
b1 A"
1H
b1 i
b0zzzzzzzzzzzzzzzzzzzzzzzzzzzzzzzz n
0K
b10 y"
1,
#180000
0,
#190000
b10 i
b0zzzzzzzzzzzzzzzzzzzzzzzzzzzzzzzzzzzzzzzzzzzzzzzzzzzzzzzzzzzzzzzz n
b110 A"
b11 y"
1,
#200000
0,
#210000
b111 A"
1C
b11 i
b0zzzzzzzzzzzzzzzzzzzzzzzzzzzzzzzzzzzzzzzzzzzzzzzzzzzzzzzzzzzzzzzzzzzzzzzzzzzzzzzzzzzzzzzzzzzzzzzz n
b100 y"
1,
#220000
0,
#230000
15
b100 s
b0 i
bz n
0C
b1 o"
b100 m"
1E
1U"
0#
0P"
b0 (
b0 ?
b0 I"
b0 W"
b0 e"
b0 j"
b0 '
b0 >
b0 J"
b0 V"
b0 f"
b0 n"
b101 y"
1,
#240000
0,
#250000
1R
1S
b1 k"
1#
1P"
b111 s
bz *
bz M
bz l
1Q
b110 y"
1,
#260000
0,
#270000
b0 s
1)
0+
b10 k"
b111 y"
1,
#280000
0,
#290000
b11 k"
0)
b10101010101010100000000000000000 {"
b0 z"
bz 3
bz x"
b1000 y"
1,
#300000
10
1.
b10101010101010100000000000000000 /
b10101010101010100000000000000000 9
b10101010101010100000000000000000 O
0,
#310000
b1 s
1+
b10101010101010100000000000000000 q
1r
b100 o"
b0 k"
1,
#320000
b0 |"
00
0.
0,
#330000
b0 q"
b1 o"
b101 m"
b1 j"
0&
0T"
b10 s
b1 |"
1,
#332000
b1010010100000000 !
b1010010100000000 ;
b1010010100000000 K"
b1010010100000000 Y"
b1010010100000000 6
#340000
0,
#350000
b111 s
b1 k"
1&
1T"
b10 |"
1,
#360000
0,
#370000
b10 k"
b0 s
1)
0+
b11 |"
1,
#380000
0,
#390000
0)
b11 k"
b10101010101010100000000000000001 {"
b100 z"
b100 |"
1,
#400000
10
1.
b10101010101010100000000000000001 /
b10101010101010100000000000000001 9
b10101010101010100000000000000001 O
b100 -
b100 8
b100 N
0,
#410000
b100 Y
b1 V
b101 o"
b0 k"
b1 s
1+
b10101010101010100000000000000001 q
b100 p
1,
#420000
b0 |"
00
0.
0,
#430000
b1 q"
b10 s
b1 o"
b1000 m"
b1 (
b1 ?
b1 I"
b1 W"
b1 e"
0&
0T"
b1 |"
1,
#432000
b1010010100000001 !
b1010010100000001 ;
b1010010100000001 K"
b1010010100000001 Y"
b1010010100000001 6
#440000
0,
#450000
b1 k"
1&
1T"
b111 s
b10 |"
1,
#460000
0,
#470000
b0 s
1)
0+
b10 k"
b11 |"
1,
#480000
0,
#490000
b11 k"
0)
b10000 w"
b100 |"
1,
#500000
1.
b10000 -
b10000 8
b10000 N
0,
#510000
0R
0S
0Q
b1 X
b0 Y
b0 V
b1 s
1+
0r
b10000 p
b1000 o"
b0 k"
1,
#520000
b0 y"
0.
0,
#530000
b0 o"
1D
1Q"
b1010010100000001xxxxxxxxxxxxxxxx B
b1010010100000001xxxxxxxxxxxxxxxx !"
b1010010100000001xxxxxxxxxxxxxxxx G"
b1010010100000001xxxxxxxxxxxxxxxx O"
b1010010100000001xxxxxxxxxxxxxxxx i"
b1010010100000001xxxxxxxxxxxxxxxx p"
b10000 J
b10000 o
b10000 {
1K
b1 y"
1,
#540000
0,
#550000
b110 A"
b1 ?"
b1010010100000001xxxxxxxxxxxxxxxx >"
0D
0Q"
0E
0U"
b10 y"
1,
#560000
0,
#570000
b111 A"
1C
b100 F
b100 ="
b100 F"
b100 X"
b11 y"
1,
#580000
0,
#590000
0C
b1 o"
b100 m"
1E
1U"
0#
0P"
b0 (
b0 ?
b0 I"
b0 W"
b0 e"
b100 j"
b100 y"
1,
#600000
0,
#610000
b1 k"
1#
1P"
b101 y"
1,
#620000
0,
#630000
b10 k"
b110 y"
1,
#640000
0,
#650000
b11 k"
b111 y"
1,
#660000
0,
#670000
b100 o"
b0 k"
b1000 y"
1,
#680000
0,
#690000
b100 q"
b1 o"
b101 m"
b101 j"
b100 (
b100 ?
b100 I"
b100 W"
b100 e"
0&
0T"
b1001 y"
1,
#692000
b1010010100000100 !
b1010010100000100 ;
b1010010100000100 K"
b1010010100000100 Y"
b1010010100000100 6
#700000
0,
#710000
b1 k"
1&
1T"
b1010 y"
1,
#720000
0,
#730000
b10 k"
b1011 y"
1,
#740000
0,
#750000
b11 k"
b1100 y"
1,
#760000
0,
#770000
b101 o"
b0 k"
b1101 y"
1,
#780000
0,
#790000
b101 q"
b1 o"
b1000 m"
b101 (
b101 ?
b101 I"
b101 W"
b101 e"
0&
0T"
b1110 y"
1,
#792000
b1010010100000101 !
b1010010100000101 ;
b1010010100000101 K"
b1010010100000101 Y"
b1010010100000101 6
#800000
0,
#810000
b1 k"
1&
1T"
b1111 y"
1,
#820000
0,
#830000
b10 k"
b10000 y"
1,
#840000
0,
#850000
b11 k"
b10001 y"
1,
#860000
0,
#870000
b1000 o"
b0 k"
b10010 y"
1,
#880000
0,
#890000
b0 o"
1D
1Q"
b1010010100000101xxxxxxxxxxxxxxxx B
b1010010100000101xxxxxxxxxxxxxxxx !"
b1010010100000101xxxxxxxxxxxxxxxx G"
b1010010100000101xxxxxxxxxxxxxxxx O"
b1010010100000101xxxxxxxxxxxxxxxx i"
b1010010100000101xxxxxxxxxxxxxxxx p"
b10011 y"
1,
#900000
0,
#910000
b110 A"
b10 ?"
b1010010100000101xxxxxxxxxxxxxxxx1010010100000001xxxxxxxxxxxxxxxx >"
0D
0Q"
0E
0U"
b10100 y"
1,
#920000
0,
#930000
b111 A"
1C
b1000 F
b1000 ="
b1000 F"
b1000 X"
b10101 y"
1,
#940000
0,
#950000
0C
b1 o"
b100 m"
1E
1U"
0#
0P"
b0 (
b0 ?
b0 I"
b0 W"
b0 e"
b1000 j"
b10110 y"
1,
#960000
0,
#970000
b1 k"
1#
1P"
b10111 y"
1,
#980000
0,
#990000
b10 k"
b11000 y"
1,
#1000000
0,
#1010000
b11 k"
b11001 y"
1,
#1020000
0,
#1030000
b100 o"
b0 k"
b11010 y"
1,
#1040000
0,
#1050000
b1000 q"
b1 o"
b101 m"
b1001 j"
b1000 (
b1000 ?
b1000 I"
b1000 W"
b1000 e"
0&
0T"
b11011 y"
1,
#1052000
b1010010100001000 !
b1010010100001000 ;
b1010010100001000 K"
b1010010100001000 Y"
b1010010100001000 6
#1060000
0,
#1070000
b1 k"
1&
1T"
b11100 y"
1,
#1080000
0,
#1090000
b10 k"
b11101 y"
1,
#1100000
0,
#1110000
b11 k"
b11110 y"
1,
#1120000
0,
#1130000
b101 o"
b0 k"
b11111 y"
1,
#1140000
0,
#1150000
b1001 q"
b1 o"
b1000 m"
b1001 (
b1001 ?
b1001 I"
b1001 W"
b1001 e"
0&
0T"
b100000 y"
1,
#1152000
b1010010100001001 !
b1010010100001001 ;
b1010010100001001 K"
b1010010100001001 Y"
b1010010100001001 6
#1160000
0,
#1170000
b1 k"
1&
1T"
b100001 y"
1,
#1180000
0,
#1190000
b10 k"
b100010 y"
1,
#1200000
0,
#1210000
b11 k"
b100011 y"
1,
#1220000
0,
#1230000
b1000 o"
b0 k"
b100100 y"
1,
#1240000
0,
#1250000
b0 o"
1D
1Q"
b1010010100001001xxxxxxxxxxxxxxxx B
b1010010100001001xxxxxxxxxxxxxxxx !"
b1010010100001001xxxxxxxxxxxxxxxx G"
b1010010100001001xxxxxxxxxxxxxxxx O"
b1010010100001001xxxxxxxxxxxxxxxx i"
b1010010100001001xxxxxxxxxxxxxxxx p"
b100101 y"
1,
#1260000
0,
#1270000
b110 A"
b11 ?"
b1010010100001001xxxxxxxxxxxxxxxx1010010100000101xxxxxxxxxxxxxxxx1010010100000001xxxxxxxxxxxxxxxx >"
0D
0Q"
0E
0U"
b100110 y"
1,
#1280000
0,
#1290000
b111 A"
1C
b1100 F
b1100 ="
b1100 F"
b1100 X"
b100111 y"
1,
#1300000
0,
#1310000
0C
b1 o"
b100 m"
1E
1U"
0#
0P"
b0 (
b0 ?
b0 I"
b0 W"
b0 e"
b1100 j"
b101000 y"
1,
#1320000
0,
#1330000
b1 k"
1#
1P"
b101001 y"
1,
#1340000
0,
#1350000
b10 k"
b101010 y"
1,
#1360000
0,
#1370000
b11 k"
b101011 y"
1,
#1380000
0,
#1390000
b100 o"
b0 k"
b101100 y"
1,
#1400000
0,
#1410000
b1100 q"
b1 o"
b101 m"
b1101 j"
b1100 (
b1100 ?
b1100 I"
b1100 W"
b1100 e"
0&
0T"
b101101 y"
1,
#1412000
b1010010100001100 !
b1010010100001100 ;
b1010010100001100 K"
b1010010100001100 Y"
b1010010100001100 6
#1420000
0,
#1430000
b1 k"
1&
1T"
b101110 y"
1,
#1440000
0,
#1450000
b10 k"
b101111 y"
1,
#1460000
0,
#1470000
b11 k"
b110000 y"
1,
#1480000
0,
#1490000
b101 o"
b0 k"
b110001 y"
1,
#1500000
0,
#1510000
b1101 q"
b1 o"
b1000 m"
b1101 (
b1101 ?
b1101 I"
b1101 W"
b1101 e"
0&
0T"
b110010 y"
1,
#1512000
b1010010100001101 !
b1010010100001101 ;
b1010010100001101 K"
b1010010100001101 Y"
b1010010100001101 6
#1520000
0,
#1530000
b1 k"
1&
1T"
b110011 y"
1,
#1540000
0,
#1550000
b10 k"
b110100 y"
1,
#1560000
0,
#1570000
b11 k"
b110101 y"
1,
#1580000
0,
#1590000
b1000 o"
b0 k"
b110110 y"
1,
#1600000
0,
#1610000
b0 o"
1D
1Q"
b1010010100001101xxxxxxxxxxxxxxxx B
b1010010100001101xxxxxxxxxxxxxxxx !"
b1010010100001101xxxxxxxxxxxxxxxx G"
b1010010100001101xxxxxxxxxxxxxxxx O"
b1010010100001101xxxxxxxxxxxxxxxx i"
b1010010100001101xxxxxxxxxxxxxxxx p"
b110111 y"
1,
#1620000
0,
#1630000
b1000 A"
b0 ?"
b1010010100001101xxxxxxxxxxxxxxxx1010010100001001xxxxxxxxxxxxxxxx1010010100000101xxxxxxxxxxxxxxxx1010010100000001xxxxxxxxxxxxxxxx >"
0D
0Q"
0E
0U"
b111000 y"
1,
#1640000
0,
#1650000
1w
1x
b11 A"
1v
b111001 y"
1,
#1660000
0,
#1670000
b1010010100000001xxxxxxxxxxxxxxxx :
b1010010100000001xxxxxxxxxxxxxxxx U
b1010010100000001xxxxxxxxxxxxxxxx z
b1 6"
b1010010100000001xxxxxxxxxxxxxxxx 7"
18"
b111010 y"
1,
#1680000
0,
#1690000
b1010010100000101xxxxxxxxxxxxxxxx :
b1010010100000101xxxxxxxxxxxxxxxx U
b1010010100000101xxxxxxxxxxxxxxxx z
b10 6"
b1010010100000101xxxxxxxxxxxxxxxx 7"
18"
b111011 y"
1,
#1700000
0,
#1710000
b1010010100001001xxxxxxxxxxxxxxxx :
b1010010100001001xxxxxxxxxxxxxxxx U
b1010010100001001xxxxxxxxxxxxxxxx z
b11 6"
b1010010100001001xxxxxxxxxxxxxxxx 7"
18"
b111100 y"
1,
#1720000
0,
#1730000
b1010010100001101xxxxxxxxxxxxxxxx :
b1010010100001101xxxxxxxxxxxxxxxx U
b1010010100001101xxxxxxxxxxxxxxxx z
b1100 A"
b0 6"
b1010010100001101xxxxxxxxxxxxxxxx 7"
18"
b111101 y"
1,
#1740000
0,
#1750000
bz :
bz U
bz z
b0 A"
0H
1G
08"
b111110 y"
1,
#1760000
0,
#1770000
0w
0x
0v
b1 ~
b1 A"
b10000 ;"
1H
0G
b11 s
b111111 y"
1,
#1780000
0,
#1790000
b1 i
0K
b110 A"
b1000000 y"
1,
#1800000
0,
#1810000
b111 A"
1C
b10000 F
b10000 ="
b10000 F"
b10000 X"
b10 i
b1000001 y"
1,
#1820000
0,
#1830000
b11 i
0C
b1 o"
b100 m"
1E
1U"
0#
0P"
b0 (
b0 ?
b0 I"
b0 W"
b0 e"
b10000 j"
b1000010 y"
1,
#1840000
0,
#1850000
b1 k"
1#
1P"
b100 s
b0 i
b1000011 y"
1,
#1860000
0,
#1870000
1R
1S
b111 s
1Q
b10 k"
b1000100 y"
1,
#1880000
0,
#1890000
b11 k"
b0 s
1)
0+
b1000101 y"
1,
#1900000
0,
#1910000
0)
b100 o"
b0 k"
b10111011101110110000000000010000 {"
b10000 z"
b1000110 y"
1,
#1920000
10
1.
b10111011101110110000000000010000 /
b10111011101110110000000000010000 9
b10111011101110110000000000010000 O
0,
#1930000
b10000 q"
b1 o"
b101 m"
b10001 j"
b10000 (
b10000 ?
b10000 I"
b10000 W"
b10000 e"
0&
0T"
b1 s
1+
b10111011101110110000000000010000 q
1r
1,
#1932000
b1010010100010000 !
b1010010100010000 ;
b1010010100010000 K"
b1010010100010000 Y"
b1010010100010000 6
#1940000
b0 |"
00
0.
0,
#1950000
b10 s
b1 k"
1&
1T"
b1 |"
1,
#1960000
0,
#1970000
b10 k"
b111 s
b10 |"
1,
#1980000
0,
#1990000
b0 s
1)
0+
b11 k"
b11 |"
1,
#2000000
0,
#2010000
b101 o"
b0 k"
0)
b100000 w"
b100 |"
1,
#2020000
1.
b100000 -
b100000 8
b100000 N
0,
#2030000
0R
0S
0Q
b10 X
b10001 q"
b1 s
1+
0r
b100000 p
b1 o"
b1000 m"
b10001 (
b10001 ?
b10001 I"
b10001 W"
b10001 e"
0&
0T"
1,
#2032000
b1010010100010001 !
b1010010100010001 ;
b1010010100010001 K"
b1010010100010001 Y"
b1010010100010001 6
#2040000
b0 y"
0.
0,
#2050000
b1 k"
1&
1T"
b100000 J
b100000 o
b100000 {
1K
b1 y"
1,
#2060000
0,
#2070000
b10 k"
b10 y"
1,
#2080000
0,
#2090000
b11 k"
b11 y"
1,
#2100000
0,
#2110000
b1000 o"
b0 k"
b100 y"
1,
#2120000
0,
#2130000
b0 o"
1D
1Q"
b1010010100010001xxxxxxxxxxxxxxxx B
b1010010100010001xxxxxxxxxxxxxxxx !"
b1010010100010001xxxxxxxxxxxxxxxx G"
b1010010100010001xxxxxxxxxxxxxxxx O"
b1010010100010001xxxxxxxxxxxxxxxx i"
b1010010100010001xxxxxxxxxxxxxxxx p"
b101 y"
1,
#2140000
0,
#2150000
b110 A"
b1 ?"
b1010010100001101xxxxxxxxxxxxxxxx1010010100001001xxxxxxxxxxxxxxxx1010010100000101xxxxxxxxxxxxxxxx1010010100010001xxxxxxxxxxxxxxxx >"
0D
0Q"
0E
0U"
b110 y"
1,
#2160000
0,
#2170000
b111 A"
1C
b10100 F
b10100 ="
b10100 F"
b10100 X"
b111 y"
1,
#2180000
0,
#2190000
0C
b1 o"
b100 m"
1E
1U"
0#
0P"
b0 (
b0 ?
b0 I"
b0 W"
b0 e"
b10100 j"
b1000 y"
1,
#2200000
0,
#2210000
b1 k"
1#
1P"
b1001 y"
1,
#2220000
0,
#2230000
b10 k"
b1010 y"
1,
#2240000
0,
#2250000
b11 k"
b1011 y"
1,
#2260000
0,
#2270000
b100 o"
b0 k"
b1100 y"
1,
#2280000
0,
#2290000
b10100 q"
b1 o"
b101 m"
b10101 j"
b10100 (
b10100 ?
b10100 I"
b10100 W"
b10100 e"
0&
0T"
b1101 y"
1,
#2292000
b1010010100010100 !
b1010010100010100 ;
b1010010100010100 K"
b1010010100010100 Y"
b1010010100010100 6
#2300000
0,
#2310000
b1 k"
1&
1T"
b1110 y"
1,
#2320000
0,
#2330000
b10 k"
b1111 y"
1,
#2340000
0,
#2350000
b11 k"
b10000 y"
1,
#2360000
0,
#2370000
b101 o"
b0 k"
b10001 y"
1,
#2380000
0,
#2390000
b10101 q"
b1 o"
b1000 m"
b10101 (
b10101 ?
b10101 I"
b10101 W"
b10101 e"
0&
0T"
b10010 y"
1,
#2392000
b1010010100010101 !
b1010010100010101 ;
b1010010100010101 K"
b1010010100010101 Y"
b1010010100010101 6
#2400000
0,
#2410000
b1 k"
1&
1T"
b10011 y"
1,
#2420000
0,
#2430000
b10 k"
b10100 y"
1,
#2440000
0,
#2450000
b11 k"
b10101 y"
1,
#2460000
0,
#2470000
b1000 o"
b0 k"
b10110 y"
1,
#2480000
0,
#2490000
b0 o"
1D
1Q"
b1010010100010101xxxxxxxxxxxxxxxx B
b1010010100010101xxxxxxxxxxxxxxxx !"
b1010010100010101xxxxxxxxxxxxxxxx G"
b1010010100010101xxxxxxxxxxxxxxxx O"
b1010010100010101xxxxxxxxxxxxxxxx i"
b1010010100010101xxxxxxxxxxxxxxxx p"
b10111 y"
1,
#2500000
0,
#2510000
b110 A"
b10 ?"
b1010010100001101xxxxxxxxxxxxxxxx1010010100001001xxxxxxxxxxxxxxxx1010010100010101xxxxxxxxxxxxxxxx1010010100010001xxxxxxxxxxxxxxxx >"
0D
0Q"
0E
0U"
b11000 y"
1,
#2520000
0,
#2530000
b111 A"
1C
b11000 F
b11000 ="
b11000 F"
b11000 X"
b11001 y"
1,
#2540000
0,
#2550000
0C
b1 o"
b100 m"
1E
1U"
0#
0P"
b0 (
b0 ?
b0 I"
b0 W"
b0 e"
b11000 j"
b11010 y"
1,
#2560000
0,
#2570000
b1 k"
1#
1P"
b11011 y"
1,
#2580000
0,
#2590000
b10 k"
b11100 y"
1,
#2600000
0,
#2610000
b11 k"
b11101 y"
1,
#2620000
0,
#2630000
b100 o"
b0 k"
b11110 y"
1,
#2640000
0,
#2650000
b11000 q"
b1 o"
b101 m"
b11001 j"
b11000 (
b11000 ?
b11000 I"
b11000 W"
b11000 e"
0&
0T"
b11111 y"
1,
#2652000
b1010010100011000 !
b1010010100011000 ;
b1010010100011000 K"
b1010010100011000 Y"
b1010010100011000 6
#2660000
0,
#2670000
b1 k"
1&
1T"
b100000 y"
1,
#2680000
0,
#2690000
b10 k"
b100001 y"
1,
#2700000
0,
#2710000
b11 k"
b100010 y"
1,
#2720000
0,
